G04 Layer_Physical_Order=1*
G04 Layer_Color=255*
%FSLAX25Y25*%
%MOIN*%
G70*
G01*
G75*
%ADD10C,0.02500*%
%ADD11C,0.02000*%
%ADD12C,0.03000*%
%ADD13R,0.05906X0.05906*%
%ADD14C,0.05906*%
%ADD15C,0.04000*%
%ADD16C,0.10000*%
%ADD17C,0.06000*%
%ADD18R,0.05906X0.05906*%
%ADD19C,0.03200*%
G36*
X570661Y219754D02*
X573128Y219263D01*
X575535Y218533D01*
X577859Y217570D01*
X580077Y216384D01*
X582168Y214987D01*
X584113Y213391D01*
X585891Y211613D01*
X587487Y209668D01*
X588884Y207577D01*
X590070Y205359D01*
X591033Y203035D01*
X591763Y200628D01*
X592253Y198161D01*
X592500Y195658D01*
Y194400D01*
Y130000D01*
Y90600D01*
Y89342D01*
X592253Y86839D01*
X591763Y84372D01*
X591033Y81965D01*
X590070Y79641D01*
X588884Y77423D01*
X587487Y75332D01*
X585891Y73387D01*
X584113Y71609D01*
X582168Y70013D01*
X580077Y68616D01*
X577859Y67430D01*
X575535Y66467D01*
X573128Y65737D01*
X570661Y65246D01*
X568158Y65000D01*
X236842D01*
X234339Y65246D01*
X231872Y65737D01*
X229465Y66467D01*
X227141Y67430D01*
X224923Y68616D01*
X222832Y70013D01*
X220887Y71609D01*
X219109Y73387D01*
X217513Y75332D01*
X216116Y77423D01*
X214930Y79641D01*
X213967Y81965D01*
X213237Y84372D01*
X212747Y86839D01*
X212500Y89342D01*
Y90600D01*
Y140000D01*
Y194400D01*
Y195658D01*
X212747Y198161D01*
X213237Y200628D01*
X213967Y203035D01*
X214930Y205359D01*
X216116Y207577D01*
X217513Y209668D01*
X219109Y211613D01*
X220887Y213391D01*
X222832Y214987D01*
X224923Y216384D01*
X227141Y217570D01*
X229465Y218533D01*
X231872Y219263D01*
X234339Y219754D01*
X236842Y220000D01*
X568158D01*
X570661Y219754D01*
D02*
G37*
%LPC*%
G36*
X569000Y204139D02*
X567510Y203992D01*
X566077Y203558D01*
X564756Y202852D01*
X563598Y201902D01*
X562648Y200744D01*
X561942Y199423D01*
X561508Y197990D01*
X561361Y196500D01*
X561508Y195010D01*
X561942Y193577D01*
X562648Y192256D01*
X563598Y191098D01*
X564756Y190148D01*
X566077Y189442D01*
X567510Y189008D01*
X569000Y188861D01*
X570490Y189008D01*
X571923Y189442D01*
X573244Y190148D01*
X574402Y191098D01*
X575352Y192256D01*
X576058Y193577D01*
X576492Y195010D01*
X576639Y196500D01*
X576492Y197990D01*
X576058Y199423D01*
X575352Y200744D01*
X574402Y201902D01*
X573244Y202852D01*
X571923Y203558D01*
X570490Y203992D01*
X569000Y204139D01*
D02*
G37*
G36*
X236000D02*
X234510Y203992D01*
X233077Y203558D01*
X231756Y202852D01*
X230598Y201902D01*
X229648Y200744D01*
X228942Y199423D01*
X228508Y197990D01*
X228361Y196500D01*
X228508Y195010D01*
X228942Y193577D01*
X229648Y192256D01*
X230598Y191098D01*
X231756Y190148D01*
X233077Y189442D01*
X234510Y189008D01*
X236000Y188861D01*
X237490Y189008D01*
X238923Y189442D01*
X240244Y190148D01*
X241402Y191098D01*
X242352Y192256D01*
X243058Y193577D01*
X243492Y195010D01*
X243639Y196500D01*
X243492Y197990D01*
X243058Y199423D01*
X242352Y200744D01*
X241402Y201902D01*
X240244Y202852D01*
X238923Y203558D01*
X237490Y203992D01*
X236000Y204139D01*
D02*
G37*
G36*
X260500Y176421D02*
Y173000D01*
X263921D01*
X263851Y173532D01*
X263453Y174493D01*
X262819Y175319D01*
X261993Y175953D01*
X261032Y176351D01*
X260500Y176421D01*
D02*
G37*
G36*
X270500D02*
Y173000D01*
X273921D01*
X273851Y173532D01*
X273453Y174493D01*
X272819Y175319D01*
X271993Y175953D01*
X271032Y176351D01*
X270500Y176421D01*
D02*
G37*
G36*
X259500D02*
X258968Y176351D01*
X258007Y175953D01*
X257181Y175319D01*
X256547Y174493D01*
X256149Y173532D01*
X256079Y173000D01*
X259500D01*
Y176421D01*
D02*
G37*
G36*
X269500D02*
X268968Y176351D01*
X268007Y175953D01*
X267181Y175319D01*
X266547Y174493D01*
X266149Y173532D01*
X266079Y173000D01*
X269500D01*
Y176421D01*
D02*
G37*
G36*
X440000Y176991D02*
X438838Y176838D01*
X437754Y176390D01*
X436824Y175676D01*
X436110Y174746D01*
X435662Y173662D01*
X435509Y172500D01*
X435662Y171338D01*
X435861Y170856D01*
X435472Y170274D01*
X434527D01*
X434139Y170856D01*
X434338Y171338D01*
X434491Y172500D01*
X434338Y173662D01*
X433889Y174746D01*
X433176Y175676D01*
X432246Y176390D01*
X431162Y176838D01*
X430000Y176991D01*
X428838Y176838D01*
X427754Y176390D01*
X426824Y175676D01*
X426111Y174746D01*
X425662Y173662D01*
X425509Y172500D01*
X425662Y171338D01*
X425861Y170856D01*
X425472Y170274D01*
X424528D01*
X424139Y170856D01*
X424338Y171338D01*
X424491Y172500D01*
X424338Y173662D01*
X423889Y174746D01*
X423176Y175676D01*
X422246Y176390D01*
X421162Y176838D01*
X420000Y176991D01*
X418838Y176838D01*
X417754Y176390D01*
X416824Y175676D01*
X416111Y174746D01*
X415662Y173662D01*
X415509Y172500D01*
X415599Y171813D01*
X414936Y171486D01*
X414425Y171998D01*
X414491Y172500D01*
X414338Y173662D01*
X413890Y174746D01*
X413176Y175676D01*
X412246Y176390D01*
X411162Y176838D01*
X410000Y176991D01*
X408838Y176838D01*
X407754Y176390D01*
X406824Y175676D01*
X406110Y174746D01*
X405662Y173662D01*
X405509Y172500D01*
X405599Y171813D01*
X404936Y171486D01*
X404425Y171998D01*
X404491Y172500D01*
X404338Y173662D01*
X403890Y174746D01*
X403176Y175676D01*
X402246Y176390D01*
X401162Y176838D01*
X400000Y176991D01*
X398838Y176838D01*
X397754Y176390D01*
X396824Y175676D01*
X396111Y174746D01*
X395662Y173662D01*
X395509Y172500D01*
X395662Y171338D01*
X396111Y170254D01*
X396824Y169324D01*
X397754Y168611D01*
X398838Y168162D01*
X400000Y168009D01*
X400502Y168075D01*
X408039Y160539D01*
X408613Y160098D01*
X409282Y159821D01*
X410000Y159726D01*
X451351D01*
X455104Y155974D01*
X454814Y155274D01*
X378904D01*
X378309Y155520D01*
X377500Y155627D01*
X376691Y155520D01*
X375937Y155208D01*
X375289Y154711D01*
X374792Y154063D01*
X374480Y153309D01*
X374373Y152500D01*
X374480Y151691D01*
X374792Y150937D01*
X375289Y150289D01*
X375937Y149792D01*
X376691Y149480D01*
X377500Y149373D01*
X378309Y149480D01*
X378904Y149726D01*
X466351D01*
X469726Y146351D01*
Y138904D01*
X469480Y138309D01*
X469373Y137500D01*
X469480Y136691D01*
X469792Y135937D01*
X470289Y135289D01*
X470937Y134792D01*
X471691Y134480D01*
X472500Y134373D01*
X473309Y134480D01*
X474063Y134792D01*
X474711Y135289D01*
X475208Y135937D01*
X475520Y136691D01*
X475627Y137500D01*
X475520Y138309D01*
X475274Y138904D01*
Y147500D01*
X475179Y148218D01*
X474902Y148887D01*
X474461Y149461D01*
X469896Y154026D01*
X470186Y154726D01*
X498851D01*
X502226Y151351D01*
Y132500D01*
X502321Y131782D01*
X502598Y131113D01*
X503039Y130539D01*
X508876Y124702D01*
X508594Y123774D01*
X508468Y122500D01*
X508594Y121226D01*
X508966Y120001D01*
X509569Y118871D01*
X510382Y117882D01*
X511371Y117069D01*
X512500Y116466D01*
X513726Y116094D01*
X515000Y115969D01*
X516274Y116094D01*
X517499Y116466D01*
X518629Y117069D01*
X519618Y117882D01*
X520431Y118871D01*
X521034Y120001D01*
X521406Y121226D01*
X521531Y122500D01*
X521406Y123774D01*
X521034Y124999D01*
X520431Y126129D01*
X519618Y127118D01*
X518629Y127931D01*
X517499Y128534D01*
X516274Y128906D01*
X515000Y129031D01*
X513726Y128906D01*
X512798Y128624D01*
X507774Y133649D01*
Y152500D01*
X507679Y153218D01*
X507402Y153887D01*
X506961Y154461D01*
X501961Y159461D01*
X501387Y159902D01*
X500718Y160179D01*
X500000Y160274D01*
X464442D01*
X463974Y160974D01*
X464146Y161389D01*
X464293Y162500D01*
X464146Y163611D01*
X463974Y164026D01*
X464442Y164726D01*
X516351D01*
X527046Y154032D01*
X527292Y153437D01*
X527789Y152789D01*
X528437Y152292D01*
X529191Y151980D01*
X530000Y151873D01*
X530809Y151980D01*
X531563Y152292D01*
X532211Y152789D01*
X532708Y153437D01*
X533020Y154191D01*
X533127Y155000D01*
X533020Y155809D01*
X532708Y156563D01*
X532211Y157211D01*
X531563Y157708D01*
X530968Y157954D01*
X519461Y169461D01*
X518887Y169902D01*
X518218Y170179D01*
X517500Y170274D01*
X454453D01*
Y176953D01*
X445547D01*
Y170274D01*
X444527D01*
X444139Y170856D01*
X444338Y171338D01*
X444491Y172500D01*
X444338Y173662D01*
X443890Y174746D01*
X443176Y175676D01*
X442246Y176390D01*
X441162Y176838D01*
X440000Y176991D01*
D02*
G37*
G36*
X273921Y172000D02*
X270500D01*
Y168579D01*
X271032Y168649D01*
X271993Y169047D01*
X272819Y169681D01*
X273453Y170507D01*
X273851Y171468D01*
X273921Y172000D01*
D02*
G37*
G36*
X263921D02*
X260500D01*
Y168579D01*
X261032Y168649D01*
X261993Y169047D01*
X262819Y169681D01*
X263453Y170507D01*
X263851Y171468D01*
X263921Y172000D01*
D02*
G37*
G36*
X269500D02*
X266079D01*
X266149Y171468D01*
X266547Y170507D01*
X267181Y169681D01*
X268007Y169047D01*
X268968Y168649D01*
X269500Y168579D01*
Y172000D01*
D02*
G37*
G36*
X259500D02*
X256079D01*
X256149Y171468D01*
X256547Y170507D01*
X257181Y169681D01*
X258007Y169047D01*
X258968Y168649D01*
X259500Y168579D01*
Y172000D01*
D02*
G37*
G36*
X390000Y176991D02*
X388838Y176838D01*
X387754Y176390D01*
X386824Y175676D01*
X386110Y174746D01*
X385662Y173662D01*
X385509Y172500D01*
X385662Y171338D01*
X386110Y170254D01*
X386824Y169324D01*
X387754Y168611D01*
X388838Y168162D01*
X390000Y168009D01*
X391162Y168162D01*
X392246Y168611D01*
X393176Y169324D01*
X393889Y170254D01*
X394338Y171338D01*
X394491Y172500D01*
X394338Y173662D01*
X393889Y174746D01*
X393176Y175676D01*
X392246Y176390D01*
X391162Y176838D01*
X390000Y176991D01*
D02*
G37*
G36*
X380000D02*
X378838Y176838D01*
X377754Y176390D01*
X376824Y175676D01*
X376111Y174746D01*
X375662Y173662D01*
X375509Y172500D01*
X375662Y171338D01*
X376111Y170254D01*
X376824Y169324D01*
X377754Y168611D01*
X378838Y168162D01*
X380000Y168009D01*
X381162Y168162D01*
X382246Y168611D01*
X383176Y169324D01*
X383890Y170254D01*
X384338Y171338D01*
X384491Y172500D01*
X384338Y173662D01*
X383890Y174746D01*
X383176Y175676D01*
X382246Y176390D01*
X381162Y176838D01*
X380000Y176991D01*
D02*
G37*
G36*
X370000D02*
X368838Y176838D01*
X367754Y176390D01*
X366824Y175676D01*
X366110Y174746D01*
X365662Y173662D01*
X365509Y172500D01*
X365662Y171338D01*
X366110Y170254D01*
X366824Y169324D01*
X367754Y168611D01*
X368838Y168162D01*
X370000Y168009D01*
X371162Y168162D01*
X372246Y168611D01*
X373176Y169324D01*
X373889Y170254D01*
X374338Y171338D01*
X374491Y172500D01*
X374338Y173662D01*
X373889Y174746D01*
X373176Y175676D01*
X372246Y176390D01*
X371162Y176838D01*
X370000Y176991D01*
D02*
G37*
G36*
X360000D02*
X358838Y176838D01*
X357754Y176390D01*
X356824Y175676D01*
X356111Y174746D01*
X355662Y173662D01*
X355509Y172500D01*
X355662Y171338D01*
X356111Y170254D01*
X356824Y169324D01*
X357754Y168611D01*
X358838Y168162D01*
X360000Y168009D01*
X361162Y168162D01*
X362246Y168611D01*
X363176Y169324D01*
X363890Y170254D01*
X364338Y171338D01*
X364491Y172500D01*
X364338Y173662D01*
X363890Y174746D01*
X363176Y175676D01*
X362246Y176390D01*
X361162Y176838D01*
X360000Y176991D01*
D02*
G37*
G36*
X350000D02*
X348838Y176838D01*
X347754Y176390D01*
X346824Y175676D01*
X346111Y174746D01*
X345662Y173662D01*
X345509Y172500D01*
X345662Y171338D01*
X346111Y170254D01*
X346824Y169324D01*
X347754Y168611D01*
X348838Y168162D01*
X350000Y168009D01*
X351162Y168162D01*
X352246Y168611D01*
X353176Y169324D01*
X353889Y170254D01*
X354338Y171338D01*
X354491Y172500D01*
X354338Y173662D01*
X353889Y174746D01*
X353176Y175676D01*
X352246Y176390D01*
X351162Y176838D01*
X350000Y176991D01*
D02*
G37*
G36*
X340000D02*
X338838Y176838D01*
X337754Y176390D01*
X336824Y175676D01*
X336110Y174746D01*
X335662Y173662D01*
X335509Y172500D01*
X335662Y171338D01*
X336110Y170254D01*
X336824Y169324D01*
X337754Y168611D01*
X338838Y168162D01*
X340000Y168009D01*
X341162Y168162D01*
X342246Y168611D01*
X343176Y169324D01*
X343889Y170254D01*
X344338Y171338D01*
X344491Y172500D01*
X344338Y173662D01*
X343889Y174746D01*
X343176Y175676D01*
X342246Y176390D01*
X341162Y176838D01*
X340000Y176991D01*
D02*
G37*
G36*
X330000D02*
X328838Y176838D01*
X327754Y176390D01*
X326824Y175676D01*
X326111Y174746D01*
X325662Y173662D01*
X325509Y172500D01*
X325662Y171338D01*
X326111Y170254D01*
X326824Y169324D01*
X327754Y168611D01*
X328838Y168162D01*
X330000Y168009D01*
X331162Y168162D01*
X332246Y168611D01*
X333176Y169324D01*
X333890Y170254D01*
X334338Y171338D01*
X334491Y172500D01*
X334338Y173662D01*
X333890Y174746D01*
X333176Y175676D01*
X332246Y176390D01*
X331162Y176838D01*
X330000Y176991D01*
D02*
G37*
G36*
X320000D02*
X318838Y176838D01*
X317754Y176390D01*
X316824Y175676D01*
X316110Y174746D01*
X315662Y173662D01*
X315509Y172500D01*
X315662Y171338D01*
X316110Y170254D01*
X316824Y169324D01*
X317754Y168611D01*
X318838Y168162D01*
X320000Y168009D01*
X321162Y168162D01*
X322246Y168611D01*
X323176Y169324D01*
X323889Y170254D01*
X324338Y171338D01*
X324491Y172500D01*
X324338Y173662D01*
X323889Y174746D01*
X323176Y175676D01*
X322246Y176390D01*
X321162Y176838D01*
X320000Y176991D01*
D02*
G37*
G36*
X310000D02*
X308838Y176838D01*
X307754Y176390D01*
X306824Y175676D01*
X306111Y174746D01*
X305662Y173662D01*
X305509Y172500D01*
X305662Y171338D01*
X306111Y170254D01*
X306824Y169324D01*
X307754Y168611D01*
X308838Y168162D01*
X310000Y168009D01*
X311162Y168162D01*
X312246Y168611D01*
X313176Y169324D01*
X313890Y170254D01*
X314338Y171338D01*
X314491Y172500D01*
X314338Y173662D01*
X313890Y174746D01*
X313176Y175676D01*
X312246Y176390D01*
X311162Y176838D01*
X310000Y176991D01*
D02*
G37*
G36*
X300000D02*
X298838Y176838D01*
X297754Y176390D01*
X296824Y175676D01*
X296111Y174746D01*
X295662Y173662D01*
X295509Y172500D01*
X295662Y171338D01*
X296111Y170254D01*
X296824Y169324D01*
X297754Y168611D01*
X298838Y168162D01*
X300000Y168009D01*
X301162Y168162D01*
X302246Y168611D01*
X303176Y169324D01*
X303889Y170254D01*
X304338Y171338D01*
X304491Y172500D01*
X304338Y173662D01*
X303889Y174746D01*
X303176Y175676D01*
X302246Y176390D01*
X301162Y176838D01*
X300000Y176991D01*
D02*
G37*
G36*
X290000D02*
X288838Y176838D01*
X287754Y176390D01*
X286824Y175676D01*
X286110Y174746D01*
X285662Y173662D01*
X285509Y172500D01*
X285662Y171338D01*
X286110Y170254D01*
X286824Y169324D01*
X287754Y168611D01*
X288838Y168162D01*
X290000Y168009D01*
X291162Y168162D01*
X292246Y168611D01*
X293176Y169324D01*
X293889Y170254D01*
X294338Y171338D01*
X294491Y172500D01*
X294338Y173662D01*
X293889Y174746D01*
X293176Y175676D01*
X292246Y176390D01*
X291162Y176838D01*
X290000Y176991D01*
D02*
G37*
G36*
X280000D02*
X278838Y176838D01*
X277754Y176390D01*
X276824Y175676D01*
X276111Y174746D01*
X275662Y173662D01*
X275509Y172500D01*
X275662Y171338D01*
X276111Y170254D01*
X276824Y169324D01*
X277754Y168611D01*
X278838Y168162D01*
X280000Y168009D01*
X281162Y168162D01*
X282246Y168611D01*
X283176Y169324D01*
X283890Y170254D01*
X284338Y171338D01*
X284491Y172500D01*
X284338Y173662D01*
X283890Y174746D01*
X283176Y175676D01*
X282246Y176390D01*
X281162Y176838D01*
X280000Y176991D01*
D02*
G37*
G36*
X535000Y166793D02*
X533889Y166646D01*
X532854Y166218D01*
X531965Y165535D01*
X531283Y164646D01*
X530854Y163611D01*
X530707Y162500D01*
X530854Y161389D01*
X531283Y160354D01*
X531965Y159465D01*
X532854Y158782D01*
X533889Y158354D01*
X535000Y158207D01*
X536111Y158354D01*
X537146Y158782D01*
X538035Y159465D01*
X538718Y160354D01*
X539146Y161389D01*
X539293Y162500D01*
X539146Y163611D01*
X538718Y164646D01*
X538035Y165535D01*
X537146Y166218D01*
X536111Y166646D01*
X535000Y166793D01*
D02*
G37*
G36*
X385000D02*
X383889Y166646D01*
X382854Y166218D01*
X381965Y165535D01*
X381282Y164646D01*
X380854Y163611D01*
X380707Y162500D01*
X380854Y161389D01*
X381282Y160354D01*
X381965Y159465D01*
X382854Y158782D01*
X383889Y158354D01*
X385000Y158207D01*
X386111Y158354D01*
X387146Y158782D01*
X388035Y159465D01*
X388718Y160354D01*
X389146Y161389D01*
X389293Y162500D01*
X389146Y163611D01*
X388718Y164646D01*
X388035Y165535D01*
X387146Y166218D01*
X386111Y166646D01*
X385000Y166793D01*
D02*
G37*
G36*
X310000D02*
X308889Y166646D01*
X307854Y166218D01*
X306965Y165535D01*
X306282Y164646D01*
X305854Y163611D01*
X305707Y162500D01*
X305854Y161389D01*
X306282Y160354D01*
X306965Y159465D01*
X307854Y158782D01*
X308889Y158354D01*
X310000Y158207D01*
X311111Y158354D01*
X312146Y158782D01*
X313035Y159465D01*
X313718Y160354D01*
X314146Y161389D01*
X314293Y162500D01*
X314146Y163611D01*
X313718Y164646D01*
X313035Y165535D01*
X312146Y166218D01*
X311111Y166646D01*
X310000Y166793D01*
D02*
G37*
G36*
X257500Y159491D02*
X256338Y159338D01*
X255254Y158889D01*
X254324Y158176D01*
X253610Y157246D01*
X253162Y156162D01*
X253009Y155000D01*
X253162Y153838D01*
X253610Y152754D01*
X254324Y151824D01*
X255254Y151110D01*
X256338Y150662D01*
X257500Y150509D01*
X258662Y150662D01*
X259746Y151110D01*
X260676Y151824D01*
X261389Y152754D01*
X261838Y153838D01*
X261991Y155000D01*
X261838Y156162D01*
X261389Y157246D01*
X260676Y158176D01*
X259746Y158889D01*
X258662Y159338D01*
X257500Y159491D01*
D02*
G37*
G36*
X440500Y148480D02*
Y143000D01*
X445980D01*
X445913Y143676D01*
X445570Y144807D01*
X445013Y145850D01*
X444263Y146763D01*
X443350Y147513D01*
X442307Y148070D01*
X441176Y148413D01*
X440500Y148480D01*
D02*
G37*
G36*
X515500D02*
Y143000D01*
X520980D01*
X520913Y143676D01*
X520570Y144807D01*
X520013Y145850D01*
X519263Y146763D01*
X518350Y147513D01*
X517307Y148070D01*
X516176Y148413D01*
X515500Y148480D01*
D02*
G37*
G36*
X290500D02*
Y143000D01*
X295980D01*
X295913Y143676D01*
X295570Y144807D01*
X295013Y145850D01*
X294263Y146763D01*
X293350Y147513D01*
X292307Y148070D01*
X291176Y148413D01*
X290500Y148480D01*
D02*
G37*
G36*
X365500D02*
Y143000D01*
X370980D01*
X370913Y143676D01*
X370570Y144807D01*
X370013Y145850D01*
X369263Y146763D01*
X368350Y147513D01*
X367307Y148070D01*
X366176Y148413D01*
X365500Y148480D01*
D02*
G37*
G36*
X439500D02*
X438824Y148413D01*
X437693Y148070D01*
X436651Y147513D01*
X435737Y146763D01*
X434987Y145850D01*
X434430Y144807D01*
X434087Y143676D01*
X434020Y143000D01*
X439500D01*
Y148480D01*
D02*
G37*
G36*
X289500D02*
X288824Y148413D01*
X287693Y148070D01*
X286650Y147513D01*
X285737Y146763D01*
X284987Y145850D01*
X284430Y144807D01*
X284087Y143676D01*
X284020Y143000D01*
X289500D01*
Y148480D01*
D02*
G37*
G36*
X514500D02*
X513824Y148413D01*
X512693Y148070D01*
X511651Y147513D01*
X510737Y146763D01*
X509987Y145850D01*
X509430Y144807D01*
X509087Y143676D01*
X509020Y143000D01*
X514500D01*
Y148480D01*
D02*
G37*
G36*
X364500D02*
X363824Y148413D01*
X362693Y148070D01*
X361650Y147513D01*
X360737Y146763D01*
X359987Y145850D01*
X359430Y144807D01*
X359087Y143676D01*
X359020Y143000D01*
X364500D01*
Y148480D01*
D02*
G37*
G36*
X257500Y149491D02*
X256338Y149338D01*
X255254Y148890D01*
X254324Y148176D01*
X253610Y147246D01*
X253162Y146162D01*
X253009Y145000D01*
X253162Y143838D01*
X253610Y142754D01*
X254324Y141824D01*
X255254Y141111D01*
X256338Y140662D01*
X257500Y140509D01*
X258662Y140662D01*
X259746Y141111D01*
X260676Y141824D01*
X261389Y142754D01*
X261838Y143838D01*
X261991Y145000D01*
X261838Y146162D01*
X261389Y147246D01*
X260676Y148176D01*
X259746Y148890D01*
X258662Y149338D01*
X257500Y149491D01*
D02*
G37*
G36*
X520980Y142000D02*
X515500D01*
Y136520D01*
X516176Y136587D01*
X517307Y136930D01*
X518350Y137487D01*
X519263Y138237D01*
X520013Y139151D01*
X520570Y140193D01*
X520913Y141324D01*
X520980Y142000D01*
D02*
G37*
G36*
X445980D02*
X440500D01*
Y136520D01*
X441176Y136587D01*
X442307Y136930D01*
X443350Y137487D01*
X444263Y138237D01*
X445013Y139151D01*
X445570Y140193D01*
X445913Y141324D01*
X445980Y142000D01*
D02*
G37*
G36*
X370980D02*
X365500D01*
Y136520D01*
X366176Y136587D01*
X367307Y136930D01*
X368350Y137487D01*
X369263Y138237D01*
X370013Y139151D01*
X370570Y140193D01*
X370913Y141324D01*
X370980Y142000D01*
D02*
G37*
G36*
X295980D02*
X290500D01*
Y136520D01*
X291176Y136587D01*
X292307Y136930D01*
X293350Y137487D01*
X294263Y138237D01*
X295013Y139151D01*
X295570Y140193D01*
X295913Y141324D01*
X295980Y142000D01*
D02*
G37*
G36*
X514500D02*
X509020D01*
X509087Y141324D01*
X509430Y140193D01*
X509987Y139151D01*
X510737Y138237D01*
X511651Y137487D01*
X512693Y136930D01*
X513824Y136587D01*
X514500Y136520D01*
Y142000D01*
D02*
G37*
G36*
X439500D02*
X434020D01*
X434087Y141324D01*
X434430Y140193D01*
X434987Y139151D01*
X435737Y138237D01*
X436651Y137487D01*
X437693Y136930D01*
X438824Y136587D01*
X439500Y136520D01*
Y142000D01*
D02*
G37*
G36*
X364500D02*
X359020D01*
X359087Y141324D01*
X359430Y140193D01*
X359987Y139151D01*
X360737Y138237D01*
X361650Y137487D01*
X362693Y136930D01*
X363824Y136587D01*
X364500Y136520D01*
Y142000D01*
D02*
G37*
G36*
X289500D02*
X284020D01*
X284087Y141324D01*
X284430Y140193D01*
X284987Y139151D01*
X285737Y138237D01*
X286650Y137487D01*
X287693Y136930D01*
X288824Y136587D01*
X289500Y136520D01*
Y142000D01*
D02*
G37*
G36*
X387500Y143127D02*
X386691Y143020D01*
X385937Y142708D01*
X385289Y142211D01*
X384792Y141563D01*
X384480Y140809D01*
X384373Y140000D01*
X384480Y139191D01*
X384792Y138437D01*
X385289Y137789D01*
X385937Y137292D01*
X386691Y136980D01*
X386949Y136946D01*
X388198Y135698D01*
X389024Y135145D01*
X390000Y134951D01*
X415730D01*
X415937Y134792D01*
X416691Y134480D01*
X417500Y134373D01*
X418309Y134480D01*
X419063Y134792D01*
X419711Y135289D01*
X420208Y135937D01*
X420520Y136691D01*
X420627Y137500D01*
X420520Y138309D01*
X420208Y139063D01*
X419711Y139711D01*
X419063Y140208D01*
X418309Y140520D01*
X417500Y140627D01*
X416691Y140520D01*
X415937Y140208D01*
X415730Y140049D01*
X391056D01*
X390554Y140550D01*
X390520Y140809D01*
X390208Y141563D01*
X389711Y142211D01*
X389063Y142708D01*
X388309Y143020D01*
X387500Y143127D01*
D02*
G37*
G36*
X257500Y139491D02*
X256338Y139338D01*
X255254Y138890D01*
X254324Y138176D01*
X253610Y137246D01*
X253162Y136162D01*
X253009Y135000D01*
X253162Y133838D01*
X253610Y132754D01*
X254324Y131824D01*
X255254Y131111D01*
X256338Y130662D01*
X257500Y130509D01*
X258662Y130662D01*
X259746Y131111D01*
X260676Y131824D01*
X261389Y132754D01*
X261838Y133838D01*
X261991Y135000D01*
X261838Y136162D01*
X261389Y137246D01*
X260676Y138176D01*
X259746Y138890D01*
X258662Y139338D01*
X257500Y139491D01*
D02*
G37*
G36*
X261453Y128953D02*
X258000D01*
Y125500D01*
X261453D01*
Y128953D01*
D02*
G37*
G36*
X257000D02*
X253547D01*
Y125500D01*
X257000D01*
Y128953D01*
D02*
G37*
G36*
X538425Y130700D02*
X537251Y130546D01*
X536156Y130092D01*
X535216Y129371D01*
X534494Y128431D01*
X534041Y127336D01*
X533886Y126161D01*
X534041Y124987D01*
X534494Y123892D01*
X535216Y122952D01*
X536156Y122231D01*
X537251Y121777D01*
X538425Y121623D01*
X539600Y121777D01*
X540695Y122231D01*
X541635Y122952D01*
X542356Y123892D01*
X542809Y124987D01*
X542964Y126161D01*
X542809Y127336D01*
X542356Y128431D01*
X541635Y129371D01*
X540695Y130092D01*
X539600Y130546D01*
X538425Y130700D01*
D02*
G37*
G36*
X463425D02*
X462251Y130546D01*
X461156Y130092D01*
X460216Y129371D01*
X459494Y128431D01*
X459041Y127336D01*
X458886Y126161D01*
X459041Y124987D01*
X459494Y123892D01*
X460216Y122952D01*
X461156Y122231D01*
X462251Y121777D01*
X463425Y121623D01*
X464600Y121777D01*
X465695Y122231D01*
X466635Y122952D01*
X467356Y123892D01*
X467809Y124987D01*
X467964Y126161D01*
X467809Y127336D01*
X467356Y128431D01*
X466635Y129371D01*
X465695Y130092D01*
X464600Y130546D01*
X463425Y130700D01*
D02*
G37*
G36*
X388425D02*
X387250Y130546D01*
X386156Y130092D01*
X385216Y129371D01*
X384494Y128431D01*
X384041Y127336D01*
X383886Y126161D01*
X384041Y124987D01*
X384494Y123892D01*
X385216Y122952D01*
X386156Y122231D01*
X387250Y121777D01*
X388425Y121623D01*
X389600Y121777D01*
X390695Y122231D01*
X391635Y122952D01*
X392356Y123892D01*
X392809Y124987D01*
X392964Y126161D01*
X392809Y127336D01*
X392356Y128431D01*
X391635Y129371D01*
X390695Y130092D01*
X389600Y130546D01*
X388425Y130700D01*
D02*
G37*
G36*
X313425D02*
X312250Y130546D01*
X311156Y130092D01*
X310216Y129371D01*
X309494Y128431D01*
X309041Y127336D01*
X308886Y126161D01*
X309041Y124987D01*
X309494Y123892D01*
X310216Y122952D01*
X311156Y122231D01*
X312250Y121777D01*
X313425Y121623D01*
X314600Y121777D01*
X315695Y122231D01*
X316635Y122952D01*
X317356Y123892D01*
X317809Y124987D01*
X317964Y126161D01*
X317809Y127336D01*
X317356Y128431D01*
X316635Y129371D01*
X315695Y130092D01*
X314600Y130546D01*
X313425Y130700D01*
D02*
G37*
G36*
X261453Y124500D02*
X258000D01*
Y121047D01*
X261453D01*
Y124500D01*
D02*
G37*
G36*
X257000D02*
X253547D01*
Y121047D01*
X257000D01*
Y124500D01*
D02*
G37*
G36*
X306839Y123544D02*
Y120075D01*
X310307D01*
X310236Y120619D01*
X309833Y121592D01*
X309191Y122428D01*
X308356Y123069D01*
X307383Y123472D01*
X306839Y123544D01*
D02*
G37*
G36*
X456839D02*
Y120075D01*
X460307D01*
X460236Y120619D01*
X459833Y121592D01*
X459191Y122428D01*
X458356Y123069D01*
X457383Y123472D01*
X456839Y123544D01*
D02*
G37*
G36*
X531839D02*
Y120075D01*
X535307D01*
X535236Y120619D01*
X534833Y121592D01*
X534191Y122428D01*
X533356Y123069D01*
X532383Y123472D01*
X531839Y123544D01*
D02*
G37*
G36*
X381838D02*
Y120075D01*
X385307D01*
X385236Y120619D01*
X384833Y121592D01*
X384191Y122428D01*
X383356Y123069D01*
X382383Y123472D01*
X381838Y123544D01*
D02*
G37*
G36*
X455838Y123544D02*
X455294Y123472D01*
X454321Y123069D01*
X453486Y122428D01*
X452845Y121592D01*
X452442Y120619D01*
X452370Y120075D01*
X455838D01*
Y123544D01*
D02*
G37*
G36*
X530838D02*
X530294Y123472D01*
X529321Y123069D01*
X528486Y122428D01*
X527845Y121592D01*
X527442Y120619D01*
X527370Y120075D01*
X530838D01*
Y123544D01*
D02*
G37*
G36*
X380838D02*
X380294Y123472D01*
X379321Y123069D01*
X378486Y122428D01*
X377845Y121592D01*
X377442Y120619D01*
X377370Y120075D01*
X380838D01*
Y123544D01*
D02*
G37*
G36*
X305839Y123544D02*
X305294Y123472D01*
X304321Y123069D01*
X303486Y122428D01*
X302845Y121592D01*
X302442Y120619D01*
X302370Y120075D01*
X305839D01*
Y123544D01*
D02*
G37*
G36*
X495000Y126793D02*
X493889Y126646D01*
X492854Y126217D01*
X491965Y125535D01*
X491283Y124646D01*
X490854Y123611D01*
X490707Y122500D01*
X490854Y121389D01*
X491283Y120354D01*
X491965Y119465D01*
X492854Y118782D01*
X493889Y118354D01*
X495000Y118207D01*
X496111Y118354D01*
X497146Y118782D01*
X498035Y119465D01*
X498717Y120354D01*
X499146Y121389D01*
X499293Y122500D01*
X499146Y123611D01*
X498717Y124646D01*
X498035Y125535D01*
X497146Y126217D01*
X496111Y126646D01*
X495000Y126793D01*
D02*
G37*
G36*
X345000D02*
X343889Y126646D01*
X342854Y126217D01*
X341965Y125535D01*
X341283Y124646D01*
X340854Y123611D01*
X340707Y122500D01*
X340854Y121389D01*
X341283Y120354D01*
X341965Y119465D01*
X342854Y118782D01*
X343889Y118354D01*
X345000Y118207D01*
X346111Y118354D01*
X347146Y118782D01*
X348035Y119465D01*
X348717Y120354D01*
X349146Y121389D01*
X349293Y122500D01*
X349146Y123611D01*
X348717Y124646D01*
X348035Y125535D01*
X347146Y126217D01*
X346111Y126646D01*
X345000Y126793D01*
D02*
G37*
G36*
X270000D02*
X268889Y126646D01*
X267854Y126217D01*
X266965Y125535D01*
X266283Y124646D01*
X265854Y123611D01*
X265707Y122500D01*
X265854Y121389D01*
X266283Y120354D01*
X266965Y119465D01*
X267854Y118782D01*
X268889Y118354D01*
X270000Y118207D01*
X271111Y118354D01*
X272146Y118782D01*
X273035Y119465D01*
X273717Y120354D01*
X274146Y121389D01*
X274293Y122500D01*
X274146Y123611D01*
X273717Y124646D01*
X273035Y125535D01*
X272146Y126217D01*
X271111Y126646D01*
X270000Y126793D01*
D02*
G37*
G36*
X530838Y119075D02*
X527370D01*
X527442Y118531D01*
X527845Y117558D01*
X528486Y116722D01*
X529321Y116081D01*
X530294Y115678D01*
X530838Y115606D01*
Y119075D01*
D02*
G37*
G36*
X455838D02*
X452370D01*
X452442Y118531D01*
X452805Y117653D01*
X452535Y116953D01*
X445547D01*
Y108047D01*
X454453D01*
Y115396D01*
X455035Y115785D01*
X455294Y115678D01*
X455838Y115606D01*
Y119075D01*
D02*
G37*
G36*
X535307D02*
X531839D01*
Y115606D01*
X532383Y115678D01*
X533356Y116081D01*
X534191Y116722D01*
X534833Y117558D01*
X535236Y118531D01*
X535307Y119075D01*
D02*
G37*
G36*
X460307D02*
X456839D01*
Y115606D01*
X457383Y115678D01*
X458356Y116081D01*
X459191Y116722D01*
X459833Y117558D01*
X460236Y118531D01*
X460307Y119075D01*
D02*
G37*
G36*
X440000Y135627D02*
X439191Y135520D01*
X438596Y135274D01*
X437500D01*
X436782Y135179D01*
X436113Y134902D01*
X435539Y134461D01*
X431351Y130274D01*
X415000D01*
X414282Y130179D01*
X413613Y129902D01*
X413039Y129461D01*
X408039Y124461D01*
X407598Y123887D01*
X407321Y123218D01*
X407226Y122500D01*
Y115984D01*
X406824Y115676D01*
X406110Y114746D01*
X405662Y113662D01*
X405509Y112500D01*
X405662Y111338D01*
X406110Y110254D01*
X406824Y109324D01*
X407754Y108610D01*
X408838Y108162D01*
X410000Y108009D01*
X411162Y108162D01*
X412246Y108610D01*
X413176Y109324D01*
X413890Y110254D01*
X414338Y111338D01*
X414491Y112500D01*
X414338Y113662D01*
X413890Y114746D01*
X413176Y115676D01*
X412774Y115984D01*
Y121351D01*
X415207Y123784D01*
X415828Y123415D01*
X415707Y122500D01*
X415854Y121389D01*
X416283Y120354D01*
X416965Y119465D01*
X417854Y118782D01*
X418889Y118354D01*
X420000Y118207D01*
X420915Y118328D01*
X421284Y117707D01*
X420502Y116925D01*
X420000Y116991D01*
X418838Y116838D01*
X417754Y116390D01*
X416824Y115676D01*
X416111Y114746D01*
X415662Y113662D01*
X415509Y112500D01*
X415662Y111338D01*
X416111Y110254D01*
X416824Y109324D01*
X417754Y108610D01*
X418838Y108162D01*
X420000Y108009D01*
X421162Y108162D01*
X422246Y108610D01*
X423176Y109324D01*
X423889Y110254D01*
X424338Y111338D01*
X424491Y112500D01*
X424425Y113002D01*
X424936Y113514D01*
X425599Y113187D01*
X425509Y112500D01*
X425662Y111338D01*
X426111Y110254D01*
X426824Y109324D01*
X427754Y108610D01*
X428838Y108162D01*
X430000Y108009D01*
X431162Y108162D01*
X432246Y108610D01*
X433176Y109324D01*
X433889Y110254D01*
X434338Y111338D01*
X434491Y112500D01*
X434338Y113662D01*
X433889Y114746D01*
X433176Y115676D01*
X432246Y116390D01*
X431162Y116838D01*
X430000Y116991D01*
X429313Y116901D01*
X428986Y117564D01*
X431149Y119726D01*
X434112D01*
X434569Y118871D01*
X435382Y117882D01*
X436371Y117069D01*
X437500Y116466D01*
X437518Y116460D01*
X437659Y115686D01*
X437181Y115319D01*
X436547Y114493D01*
X436149Y113532D01*
X436079Y113000D01*
X440000D01*
X443921D01*
X443851Y113532D01*
X443453Y114493D01*
X442819Y115319D01*
X442341Y115686D01*
X442482Y116460D01*
X442499Y116466D01*
X443629Y117069D01*
X444618Y117882D01*
X445431Y118871D01*
X446034Y120001D01*
X446406Y121226D01*
X446531Y122500D01*
X446406Y123774D01*
X446034Y124999D01*
X445431Y126129D01*
X444618Y127118D01*
X443629Y127931D01*
X442499Y128534D01*
X441274Y128906D01*
X441257Y128908D01*
X441151Y129622D01*
X441563Y129792D01*
X442211Y130289D01*
X442708Y130937D01*
X443020Y131691D01*
X443127Y132500D01*
X443020Y133309D01*
X442708Y134063D01*
X442211Y134711D01*
X441563Y135208D01*
X440809Y135520D01*
X440000Y135627D01*
D02*
G37*
G36*
X443921Y112000D02*
X440500D01*
Y108579D01*
X441032Y108649D01*
X441993Y109047D01*
X442819Y109681D01*
X443453Y110507D01*
X443851Y111468D01*
X443921Y112000D01*
D02*
G37*
G36*
X439500D02*
X436079D01*
X436149Y111468D01*
X436547Y110507D01*
X437181Y109681D01*
X438007Y109047D01*
X438968Y108649D01*
X439500Y108579D01*
Y112000D01*
D02*
G37*
G36*
X400000Y116991D02*
X398838Y116838D01*
X397754Y116390D01*
X396824Y115676D01*
X396111Y114746D01*
X395662Y113662D01*
X395509Y112500D01*
X395662Y111338D01*
X396111Y110254D01*
X396824Y109324D01*
X397754Y108610D01*
X398838Y108162D01*
X400000Y108009D01*
X401162Y108162D01*
X402246Y108610D01*
X403176Y109324D01*
X403890Y110254D01*
X404338Y111338D01*
X404491Y112500D01*
X404338Y113662D01*
X403890Y114746D01*
X403176Y115676D01*
X402246Y116390D01*
X401162Y116838D01*
X400000Y116991D01*
D02*
G37*
G36*
X390000D02*
X388838Y116838D01*
X387754Y116390D01*
X386824Y115676D01*
X386110Y114746D01*
X385662Y113662D01*
X385509Y112500D01*
X385662Y111338D01*
X386110Y110254D01*
X386824Y109324D01*
X387754Y108610D01*
X388838Y108162D01*
X390000Y108009D01*
X391162Y108162D01*
X392246Y108610D01*
X393176Y109324D01*
X393889Y110254D01*
X394338Y111338D01*
X394491Y112500D01*
X394338Y113662D01*
X393889Y114746D01*
X393176Y115676D01*
X392246Y116390D01*
X391162Y116838D01*
X390000Y116991D01*
D02*
G37*
G36*
X385307Y119075D02*
X381339D01*
X377370D01*
X377442Y118531D01*
X377845Y117558D01*
X378062Y117274D01*
X377833Y116422D01*
X377754Y116390D01*
X376824Y115676D01*
X376111Y114746D01*
X375662Y113662D01*
X375509Y112500D01*
X375662Y111338D01*
X376111Y110254D01*
X376824Y109324D01*
X377754Y108610D01*
X378838Y108162D01*
X380000Y108009D01*
X381162Y108162D01*
X382246Y108610D01*
X383176Y109324D01*
X383890Y110254D01*
X384338Y111338D01*
X384491Y112500D01*
X384338Y113662D01*
X383890Y114746D01*
X383424Y115352D01*
X383368Y115951D01*
X383577Y116250D01*
X384191Y116722D01*
X384833Y117558D01*
X385236Y118531D01*
X385307Y119075D01*
D02*
G37*
G36*
X365000Y129031D02*
X363726Y128906D01*
X362501Y128534D01*
X361371Y127931D01*
X360382Y127118D01*
X359569Y126129D01*
X358966Y124999D01*
X358594Y123774D01*
X358469Y122500D01*
X358594Y121226D01*
X358875Y120298D01*
X358039Y119461D01*
X357598Y118887D01*
X357321Y118218D01*
X357226Y117500D01*
Y115984D01*
X356824Y115676D01*
X356111Y114746D01*
X355662Y113662D01*
X355509Y112500D01*
X355662Y111338D01*
X356111Y110254D01*
X356824Y109324D01*
X357754Y108610D01*
X358838Y108162D01*
X360000Y108009D01*
X361162Y108162D01*
X362246Y108610D01*
X363176Y109324D01*
X363890Y110254D01*
X364338Y111338D01*
X364491Y112500D01*
X364338Y113662D01*
X363890Y114746D01*
X363322Y115485D01*
X363708Y116068D01*
X363738Y116093D01*
X365000Y115969D01*
X366262Y116093D01*
X366292Y116068D01*
X366678Y115485D01*
X366110Y114746D01*
X365662Y113662D01*
X365509Y112500D01*
X365662Y111338D01*
X366110Y110254D01*
X366824Y109324D01*
X367754Y108610D01*
X368838Y108162D01*
X370000Y108009D01*
X371162Y108162D01*
X372246Y108610D01*
X373176Y109324D01*
X373889Y110254D01*
X374338Y111338D01*
X374491Y112500D01*
X374338Y113662D01*
X373889Y114746D01*
X373176Y115676D01*
X372246Y116390D01*
X371162Y116838D01*
X370000Y116991D01*
X369567Y116934D01*
X369278Y117602D01*
X369618Y117882D01*
X370431Y118871D01*
X371034Y120001D01*
X371406Y121226D01*
X371531Y122500D01*
X371406Y123774D01*
X371034Y124999D01*
X370431Y126129D01*
X369618Y127118D01*
X368629Y127931D01*
X367499Y128534D01*
X366274Y128906D01*
X365000Y129031D01*
D02*
G37*
G36*
X350000Y116991D02*
X348838Y116838D01*
X347754Y116390D01*
X346824Y115676D01*
X346111Y114746D01*
X345662Y113662D01*
X345509Y112500D01*
X345662Y111338D01*
X346111Y110254D01*
X346824Y109324D01*
X347754Y108610D01*
X348838Y108162D01*
X350000Y108009D01*
X351162Y108162D01*
X352246Y108610D01*
X353176Y109324D01*
X353889Y110254D01*
X354338Y111338D01*
X354491Y112500D01*
X354338Y113662D01*
X353889Y114746D01*
X353176Y115676D01*
X352246Y116390D01*
X351162Y116838D01*
X350000Y116991D01*
D02*
G37*
G36*
X340000D02*
X338838Y116838D01*
X337754Y116390D01*
X336824Y115676D01*
X336110Y114746D01*
X335662Y113662D01*
X335509Y112500D01*
X335662Y111338D01*
X336110Y110254D01*
X336824Y109324D01*
X337754Y108610D01*
X338838Y108162D01*
X340000Y108009D01*
X341162Y108162D01*
X342246Y108610D01*
X343176Y109324D01*
X343889Y110254D01*
X344338Y111338D01*
X344491Y112500D01*
X344338Y113662D01*
X343889Y114746D01*
X343176Y115676D01*
X342246Y116390D01*
X341162Y116838D01*
X340000Y116991D01*
D02*
G37*
G36*
X330000D02*
X328838Y116838D01*
X327754Y116390D01*
X326824Y115676D01*
X326111Y114746D01*
X325662Y113662D01*
X325509Y112500D01*
X325662Y111338D01*
X326111Y110254D01*
X326824Y109324D01*
X327754Y108610D01*
X328838Y108162D01*
X330000Y108009D01*
X331162Y108162D01*
X332246Y108610D01*
X333176Y109324D01*
X333890Y110254D01*
X334338Y111338D01*
X334491Y112500D01*
X334338Y113662D01*
X333890Y114746D01*
X333176Y115676D01*
X332246Y116390D01*
X331162Y116838D01*
X330000Y116991D01*
D02*
G37*
G36*
X320000D02*
X318838Y116838D01*
X317754Y116390D01*
X316824Y115676D01*
X316110Y114746D01*
X315662Y113662D01*
X315509Y112500D01*
X315662Y111338D01*
X316110Y110254D01*
X316824Y109324D01*
X317754Y108610D01*
X318838Y108162D01*
X320000Y108009D01*
X321162Y108162D01*
X322246Y108610D01*
X323176Y109324D01*
X323889Y110254D01*
X324338Y111338D01*
X324491Y112500D01*
X324338Y113662D01*
X323889Y114746D01*
X323176Y115676D01*
X322246Y116390D01*
X321162Y116838D01*
X320000Y116991D01*
D02*
G37*
G36*
X310307Y119075D02*
X306339D01*
X302370D01*
X302442Y118531D01*
X302845Y117558D01*
X303486Y116722D01*
X304321Y116081D01*
X305294Y115678D01*
X305884Y115600D01*
X306193Y114853D01*
X306111Y114746D01*
X305662Y113662D01*
X305509Y112500D01*
X305662Y111338D01*
X306111Y110254D01*
X306824Y109324D01*
X307754Y108610D01*
X308838Y108162D01*
X310000Y108009D01*
X311162Y108162D01*
X312246Y108610D01*
X313176Y109324D01*
X313890Y110254D01*
X314338Y111338D01*
X314491Y112500D01*
X314338Y113662D01*
X313890Y114746D01*
X313176Y115676D01*
X312246Y116390D01*
X311162Y116838D01*
X310255Y116958D01*
X309998Y117323D01*
X309914Y117506D01*
X309884Y117682D01*
X310236Y118531D01*
X310307Y119075D01*
D02*
G37*
G36*
X300000Y116991D02*
X298838Y116838D01*
X297754Y116390D01*
X296824Y115676D01*
X296111Y114746D01*
X295662Y113662D01*
X295509Y112500D01*
X295662Y111338D01*
X296111Y110254D01*
X296824Y109324D01*
X297754Y108610D01*
X298838Y108162D01*
X300000Y108009D01*
X301162Y108162D01*
X302246Y108610D01*
X303176Y109324D01*
X303889Y110254D01*
X304338Y111338D01*
X304491Y112500D01*
X304338Y113662D01*
X303889Y114746D01*
X303176Y115676D01*
X302246Y116390D01*
X301162Y116838D01*
X300000Y116991D01*
D02*
G37*
G36*
X290000Y129031D02*
X288726Y128906D01*
X287501Y128534D01*
X286371Y127931D01*
X285382Y127118D01*
X284569Y126129D01*
X283966Y124999D01*
X283594Y123774D01*
X283469Y122500D01*
X283594Y121226D01*
X283966Y120001D01*
X284569Y118871D01*
X285382Y117882D01*
X286371Y117069D01*
X287175Y116640D01*
X287201Y115965D01*
X286824Y115676D01*
X286110Y114746D01*
X285662Y113662D01*
X285509Y112500D01*
X285662Y111338D01*
X286110Y110254D01*
X286824Y109324D01*
X287754Y108610D01*
X288838Y108162D01*
X290000Y108009D01*
X291162Y108162D01*
X292246Y108610D01*
X293176Y109324D01*
X293889Y110254D01*
X294338Y111338D01*
X294491Y112500D01*
X294338Y113662D01*
X293889Y114746D01*
X293176Y115676D01*
X292799Y115965D01*
X292825Y116640D01*
X293629Y117069D01*
X294618Y117882D01*
X295431Y118871D01*
X296034Y120001D01*
X296406Y121226D01*
X296531Y122500D01*
X296406Y123774D01*
X296034Y124999D01*
X295431Y126129D01*
X294618Y127118D01*
X293629Y127931D01*
X292499Y128534D01*
X291274Y128906D01*
X290000Y129031D01*
D02*
G37*
G36*
X280000Y116991D02*
X278838Y116838D01*
X277754Y116390D01*
X276824Y115676D01*
X276111Y114746D01*
X275662Y113662D01*
X275509Y112500D01*
X275662Y111338D01*
X276111Y110254D01*
X276824Y109324D01*
X277754Y108610D01*
X278838Y108162D01*
X280000Y108009D01*
X281162Y108162D01*
X282246Y108610D01*
X283176Y109324D01*
X283890Y110254D01*
X284338Y111338D01*
X284491Y112500D01*
X284338Y113662D01*
X283890Y114746D01*
X283176Y115676D01*
X282246Y116390D01*
X281162Y116838D01*
X280000Y116991D01*
D02*
G37*
G36*
X270000D02*
X268838Y116838D01*
X267754Y116390D01*
X266824Y115676D01*
X266110Y114746D01*
X265662Y113662D01*
X265509Y112500D01*
X265662Y111338D01*
X266110Y110254D01*
X266824Y109324D01*
X267754Y108610D01*
X268838Y108162D01*
X270000Y108009D01*
X271162Y108162D01*
X272246Y108610D01*
X273176Y109324D01*
X273889Y110254D01*
X274338Y111338D01*
X274491Y112500D01*
X274338Y113662D01*
X273889Y114746D01*
X273176Y115676D01*
X272246Y116390D01*
X271162Y116838D01*
X270000Y116991D01*
D02*
G37*
G36*
X260000D02*
X258838Y116838D01*
X257754Y116390D01*
X256824Y115676D01*
X256111Y114746D01*
X255662Y113662D01*
X255509Y112500D01*
X255662Y111338D01*
X256111Y110254D01*
X256824Y109324D01*
X257754Y108610D01*
X258838Y108162D01*
X260000Y108009D01*
X261162Y108162D01*
X262246Y108610D01*
X263176Y109324D01*
X263890Y110254D01*
X264338Y111338D01*
X264491Y112500D01*
X264338Y113662D01*
X263890Y114746D01*
X263176Y115676D01*
X262246Y116390D01*
X261162Y116838D01*
X260000Y116991D01*
D02*
G37*
G36*
X569000Y96139D02*
X567510Y95992D01*
X566077Y95558D01*
X564756Y94852D01*
X563598Y93902D01*
X562648Y92744D01*
X561942Y91423D01*
X561508Y89990D01*
X561361Y88500D01*
X561508Y87010D01*
X561942Y85577D01*
X562648Y84256D01*
X563598Y83098D01*
X564756Y82148D01*
X566077Y81442D01*
X567510Y81008D01*
X569000Y80861D01*
X570490Y81008D01*
X571923Y81442D01*
X573244Y82148D01*
X574402Y83098D01*
X575352Y84256D01*
X576058Y85577D01*
X576492Y87010D01*
X576639Y88500D01*
X576492Y89990D01*
X576058Y91423D01*
X575352Y92744D01*
X574402Y93902D01*
X573244Y94852D01*
X571923Y95558D01*
X570490Y95992D01*
X569000Y96139D01*
D02*
G37*
G36*
X236000D02*
X234510Y95992D01*
X233077Y95558D01*
X231756Y94852D01*
X230598Y93902D01*
X229648Y92744D01*
X228942Y91423D01*
X228508Y89990D01*
X228361Y88500D01*
X228508Y87010D01*
X228942Y85577D01*
X229648Y84256D01*
X230598Y83098D01*
X231756Y82148D01*
X233077Y81442D01*
X234510Y81008D01*
X236000Y80861D01*
X237490Y81008D01*
X238923Y81442D01*
X240244Y82148D01*
X241402Y83098D01*
X242352Y84256D01*
X243058Y85577D01*
X243492Y87010D01*
X243639Y88500D01*
X243492Y89990D01*
X243058Y91423D01*
X242352Y92744D01*
X241402Y93902D01*
X240244Y94852D01*
X238923Y95558D01*
X237490Y95992D01*
X236000Y96139D01*
D02*
G37*
%LPD*%
D10*
X290000Y112500D02*
Y122500D01*
X430000D02*
X440000D01*
X420000Y112500D02*
X430000Y122500D01*
X437500Y132500D02*
X440000D01*
X432500Y127500D02*
X437500Y132500D01*
X415000Y127500D02*
X432500D01*
X410000Y122500D02*
X415000Y127500D01*
X410000Y112500D02*
Y122500D01*
Y172500D02*
X415000Y167500D01*
X517500D01*
X530000Y155000D01*
X400000Y172500D02*
X410000Y162500D01*
X452500D01*
X457500Y157500D01*
X500000D01*
X505000Y152500D01*
Y132500D02*
Y152500D01*
Y132500D02*
X515000Y122500D01*
X472500Y137500D02*
Y147500D01*
X467500Y152500D02*
X472500Y147500D01*
X377500Y152500D02*
X467500D01*
X360000Y112500D02*
Y117500D01*
X365000Y122500D01*
D11*
X387500Y140000D02*
X390000Y137500D01*
X417500D01*
D12*
X257500Y125000D02*
X265000D01*
X280000Y140000D01*
Y142500D01*
X306339Y119075D02*
Y141161D01*
X305000Y142500D02*
X306339Y141161D01*
X290000Y142500D02*
X305000D01*
X365000D01*
X377500D01*
X382500Y147500D02*
X392500D01*
X397500Y142500D01*
X440000D01*
X456339Y119075D02*
Y141161D01*
X455000Y142500D02*
X456339Y141161D01*
X440000Y142500D02*
X455000D01*
X440000Y112500D02*
X447500Y105000D01*
X455000D01*
X456339Y106339D01*
Y119075D01*
X270000Y150000D02*
X277500Y142500D01*
X270000Y150000D02*
Y172500D01*
X277500Y142500D02*
X280000D01*
X290000D01*
X260000Y172500D02*
X270000D01*
X377500Y142500D02*
X382500Y147500D01*
X381339Y119075D02*
Y138661D01*
X377500Y142500D02*
X381339Y138661D01*
D13*
X450000Y112500D02*
D03*
Y172500D02*
D03*
D14*
X440000Y112500D02*
D03*
X430000D02*
D03*
X420000D02*
D03*
X410000D02*
D03*
X400000D02*
D03*
X390000D02*
D03*
X380000D02*
D03*
X370000D02*
D03*
X360000D02*
D03*
X350000D02*
D03*
X340000D02*
D03*
X330000D02*
D03*
X320000D02*
D03*
X310000D02*
D03*
X300000D02*
D03*
X290000D02*
D03*
X280000D02*
D03*
X270000D02*
D03*
X260000D02*
D03*
X440000Y172500D02*
D03*
X430000D02*
D03*
X420000D02*
D03*
X410000D02*
D03*
X400000D02*
D03*
X390000D02*
D03*
X380000D02*
D03*
X370000D02*
D03*
X360000D02*
D03*
X350000D02*
D03*
X340000D02*
D03*
X330000D02*
D03*
X320000D02*
D03*
X310000D02*
D03*
X300000D02*
D03*
X290000D02*
D03*
X280000D02*
D03*
X270000D02*
D03*
X260000D02*
D03*
X257500Y155000D02*
D03*
Y145000D02*
D03*
Y135000D02*
D03*
D15*
X535000Y162500D02*
D03*
X495000Y122500D02*
D03*
X460000Y162500D02*
D03*
X420000Y122500D02*
D03*
X385000Y162500D02*
D03*
X345000Y122500D02*
D03*
X310000Y162500D02*
D03*
X270000Y122500D02*
D03*
D16*
X515000Y142500D02*
D03*
Y122500D02*
D03*
X440000Y142500D02*
D03*
Y122500D02*
D03*
X365000Y142500D02*
D03*
Y122500D02*
D03*
X290000Y142500D02*
D03*
Y122500D02*
D03*
D17*
X531339Y119575D02*
D03*
X538425Y126161D02*
D03*
X456339Y119575D02*
D03*
X463425Y126161D02*
D03*
X381339Y119575D02*
D03*
X388425Y126161D02*
D03*
X306339Y119575D02*
D03*
X313425Y126161D02*
D03*
D18*
X257500Y125000D02*
D03*
D19*
X440000Y132500D02*
D03*
X530000Y155000D02*
D03*
X387500Y140000D02*
D03*
X417500Y137500D02*
D03*
X472500D02*
D03*
X377500Y152500D02*
D03*
M02*
